…
```
## 71OTUs were removed because they are no longer 
## present in any sample after random subsampling
```

```
## ...
```

```r
alpha
```

```
## # A tibble: 72 × 4
##    Group BioRepeat Metric      value
##    <chr> <chr>     <chr>       <dbl>
##  1 U1    A         Observed 2108    
##  2 U1    A         Simpson     0.999
##  3 U1    A         Observed 2101    
##  4 U1    A         Simpson     0.998
##  5 U1    A         Observed 2076    
##  6 U1    A         Simpson     0.998
##  7 U1    A         Observed 2082    
##  8 U1    A         Simpson     0.998
##  9 U1    B         Observed 1994    
## 10 U1    B         Simpson     0.998
## # ℹ 62 more rows
```
…
